Année;Mois;Décès;Population au premier janvier
2020;2020;45400;64897954
2020;2020;45000;64897954
2020;2020;47900;64897954
2020;2020;65700;64897954
2020;2020;61500;64897954
2020;2020;50200;64897954
2020;2020;55900;64897954
2019;2019;50800;64821954
2019;2019;49200;64821954
2019;2019;45100;64821954
2019;2019;45900;64821954
2019;2019;46800;64821954
2019;2019;45300;64821954
2019;2019;48000;64821954
2019;2019;48100;64821954
2019;2019;52400;64821954
2019;2019;54800;64821954
2019;2019;59200;64821954
2018;2018;48718;64737769
2018;2018;48866;64737769
2018;2018;44716;64737769
2018;2018;46096;64737769
2018;2018;47213;64737769
2018;2018;43940;64737769
2018;2018;46748;64737769
2018;2018;49372;64737769
2018;2018;59233;64737769
2018;2018;51137;64737769
2018;2018;58611;64737769
2017;2017;48981;64639133
2017;2017;48336;64639133
2017;2017;45067;64639133
2017;2017;45556;64639133
2017;2017;45263;64639133
2017;2017;43399;64639133
2017;2017;47327;64639133
2017;2017;46089;64639133
2017;2017;49159;64639133
2017;2017;51563;64639133
2017;2017;66990;64639133
2016;2016;48742;64468792
2016;2016;49297;64468792
2016;2016;43805;64468792
2016;2016;44649;64468792
2016;2016;45648;64468792
2016;2016;43412;64468792
2016;2016;46957;64468792
2016;2016;47746;64468792
2016;2016;53090;64468792
2016;2016;48480;64468792
2016;2016;53024;64468792
2015;2015;45689;64300821
2015;2015;49110;64300821
2015;2015;43639;64300821
2015;2015;44737;64300821
2015;2015;45428;64300821
2015;2015;43637;64300821
2015;2015;45286;64300821
2015;2015;46769;64300821
2015;2015;53931;64300821
2015;2015;56432;64300821
2015;2015;57453;64300821
2014;2014;45979;64027958
2014;2014;45419;64027958
2014;2014;42544;64027958
2014;2014;43057;64027958
2014;2014;43465;64027958
2014;2014;42107;64027958
2014;2014;44467;64027958
2014;2014;44466;64027958
2014;2014;48298;64027958
2014;2014;45757;64027958
2014;2014;50125;64027958
2013;2013;44452;63697865
2013;2013;45063;63697865
2013;2013;41986;63697865
2013;2013;41622;63697865
2013;2013;44145;63697865
2013;2013;42324;63697865
2013;2013;44410;63697865
2013;2013;46036;63697865
2013;2013;53241;63697865
2013;2013;50603;63697865
2013;2013;55134;63697865
2012;2012;45771;63375971
2012;2012;46174;63375971
2012;2012;41282;63375971
2012;2012;42258;63375971
2012;2012;42923;63375971
2012;2012;41724;63375971
2012;2012;44999;63375971
2012;2012;45863;63375971
2012;2012;52871;63375971
2012;2012;53590;63375971
2012;2012;51396;63375971
2011;2011;44274;63070344
2011;2011;44935;63070344
2011;2011;41188;63070344
2011;2011;41861;63070344
2011;2011;41824;63070344
2011;2011;41391;63070344
2011;2011;43325;63070344
2011;2011;43075;63070344
2011;2011;46906;63070344
2011;2011;45390;63070344
2011;2011;52088;63070344
2010;2010;44264;62765235
2010;2010;46043;62765235
2010;2010;41743;62765235
2010;2010;41487;62765235
2010;2010;42727;62765235
2010;2010;41654;62765235
2010;2010;43824;62765235
2010;2010;43782;62765235
2010;2010;47555;62765235
2010;2010;45770;62765235
2010;2010;51095;62765235
2009;2009;43238;62465709
2009;2009;44885;62465709
2009;2009;40033;62465709
2009;2009;41066;62465709
2009;2009;41384;62465709
2009;2009;40796;62465709
2009;2009;42818;62465709
2009;2009;43550;62465709
2009;2009;46407;62465709
2009;2009;46677;62465709
2009;2009;58938;62465709
2008;2008;42763;62134866
2008;2008;44280;62134866
2008;2008;40232;62134866
2008;2008;40455;62134866
2008;2008;41940;62134866
2008;2008;40723;62134866
2008;2008;43007;62134866
2008;2008;44595;62134866
2008;2008;46964;62134866
2008;2008;45865;62134866
2008;2008;51862;62134866
2007;2007;44549;61795238
2007;2007;44448;61795238
2007;2007;39721;61795238
2007;2007;40044;61795238
2007;2007;41885;61795238
2007;2007;39837;61795238
2007;2007;41112;61795238
2007;2007;42342;61795238
2007;2007;45401;61795238
2007;2007;44229;61795238
2007;2007;49225;61795238
2006;2006;42214;61399733
2006;2006;42500;61399733
2006;2006;40304;61399733
2006;2006;40156;61399733
2006;2006;43185;61399733
2006;2006;40776;61399733
2006;2006;41563;61399733
2006;2006;41524;61399733
2006;2006;45989;61399733
2006;2006;43380;61399733
2006;2006;49166;61399733
2005;2005;41991;60963264
2005;2005;42551;60963264
2005;2005;38973;60963264
2005;2005;38870;60963264
2005;2005;39780;60963264
2005;2005;40712;60963264
2005;2005;42433;60963264
2005;2005;43365;60963264
2005;2005;53401;60963264
2005;2005;50324;60963264
2005;2005;48186;60963264
2004;2004;41530;60505421
2004;2004;42660;60505421
2004;2004;39360;60505421
2004;2004;39091;60505421
2004;2004;39975;60505421
2004;2004;39021;60505421
2004;2004;41337;60505421
2004;2004;41464;60505421
2004;2004;44993;60505421
2004;2004;43446;60505421
2004;2004;50377;60505421
2003;2003;43954;60101841
2003;2003;43786;60101841
2003;2003;41137;60101841
2003;2003;56550;60101841
2003;2003;43760;60101841
2003;2003;42604;60101841
2003;2003;42928;60101841
2003;2003;44479;60101841
2003;2003;47177;60101841
2003;2003;44667;60101841
2003;2003;50920;60101841
2002;2002;43166;59685899
2002;2002;44243;59685899
2002;2002;40322;59685899
2002;2002;40461;59685899
2002;2002;42319;59685899
2002;2002;42132;59685899
2002;2002;42973;59685899
2002;2002;44009;59685899
2002;2002;46785;59685899
2002;2002;45849;59685899
2002;2002;55663;59685899
2001;2001;44583;59266572
2001;2001;43132;59266572
2001;2001;40973;59266572
2001;2001;42518;59266572
2001;2001;43230;59266572
2001;2001;41846;59266572
2001;2001;44212;59266572
2001;2001;43594;59266572
2001;2001;46133;59266572
2001;2001;42513;59266572
2001;2001;49529;59266572
2000;2000;42983;58858198
2000;2000;43417;58858198
2000;2000;39415;58858198
2000;2000;41178;58858198
2000;2000;41511;58858198
2000;2000;40568;58858198
2000;2000;41722;58858198
2000;2000;42658;58858198
2000;2000;45098;58858198
2000;2000;47747;58858198
2000;2000;58939;58858198
1999;1999;43308;58496613
1999;1999;43651;58496613
1999;1999;39754;58496613
1999;1999;41012;58496613
1999;1999;41799;58496613
1999;1999;40123;58496613
1999;1999;42664;58496613
1999;1999;43339;58496613
1999;1999;50049;58496613
1999;1999;50019;58496613
1999;1999;51436;58496613
1998;1998;42928;58298962
1998;1998;42846;58298962
1998;1998;40016;58298962
1998;1998;41319;58298962
1998;1998;41368;58298962
1998;1998;40956;58298962
1998;1998;43961;58298962
1998;1998;48135;58298962
1998;1998;51720;58298962
1998;1998;46023;58298962
1998;1998;47361;58298962
1997;1997;43100;58116018
1997;1997;42266;58116018
1997;1997;39394;58116018
1997;1997;42519;58116018
1997;1997;42105;58116018
1997;1997;39325;58116018
1997;1997;42644;58116018
1997;1997;43954;58116018
1997;1997;45218;58116018
1997;1997;44788;58116018
1997;1997;59227;58116018
1996;1996;43337;57935959
1996;1996;42725;57935959
1996;1996;40680;57935959
1996;1996;39915;57935959
1996;1996;42390;57935959
1996;1996;41237;57935959
1996;1996;43636;57935959
1996;1996;44833;57935959
1996;1996;47495;57935959
1996;1996;46604;57935959
1996;1996;51341;57935959
1995;1995;43346;57752535
1995;1995;43462;57752535
1995;1995;40873;57752535
1995;1995;42078;57752535
1995;1995;43819;57752535
1995;1995;41742;57752535
1995;1995;43965;57752535
1995;1995;45670;57752535
1995;1995;46454;57752535
1995;1995;40937;57752535
1995;1995;48788;57752535
1994;1994;41833;57565008
1994;1994;43503;57565008
1994;1994;41050;57565008
1994;1994;41822;57565008
1994;1994;43940;57565008
1994;1994;40573;57565008
1994;1994;41841;57565008
1994;1994;43104;57565008
1994;1994;44356;57565008
1994;1994;42613;57565008
1994;1994;49932;57565008
1993;1993;44017;57369161
1993;1993;43938;57369161
1993;1993;40571;57369161
1993;1993;40987;57369161
1993;1993;41063;57369161
1993;1993;40678;57369161
1993;1993;42331;57369161
1993;1993;43686;57369161
1993;1993;49688;57369161
1993;1993;43185;57369161
1993;1993;49231;57369161
1992;1992;42329;57110533
1992;1992;43817;57110533
1992;1992;39939;57110533
1992;1992;41422;57110533
1992;1992;41953;57110533
1992;1992;39573;57110533
1992;1992;42145;57110533
1992;1992;42399;57110533
1992;1992;44875;57110533
1992;1992;45888;57110533
1992;1992;52247;57110533
1991;1991;44288;56840661
1991;1991;44502;56840661
1991;1991;39195;56840661
1991;1991;41130;56840661
1991;1991;41871;56840661
1991;1991;40314;56840661
1991;1991;42962;56840661
1991;1991;42788;56840661
1991;1991;45463;56840661
1991;1991;46308;56840661
1991;1991;47211;56840661
1990;1990;42871;56577000
1990;1990;43401;56577000
1990;1990;38997;56577000
1990;1990;41681;56577000
1990;1990;42461;56577000
1990;1990;40266;56577000
1990;1990;41355;56577000
1990;1990;43217;56577000
1990;1990;44491;56577000
1990;1990;43208;56577000
1990;1990;56059;56577000
1989;1989;43021;56269810
1989;1989;45098;56269810
1989;1989;40376;56269810
1989;1989;40663;56269810
1989;1989;42710;56269810
1989;1989;41112;56269810
1989;1989;43099;56269810
1989;1989;42154;56269810
1989;1989;45384;56269810
1989;1989;43397;56269810
1989;1989;48428;56269810
1988;1988;43970;55966142
1988;1988;44085;55966142
1988;1988;40145;55966142
1988;1988;41105;55966142
1988;1988;41457;55966142
1988;1988;41272;55966142
1988;1988;42715;55966142
1988;1988;43770;55966142
1988;1988;47762;55966142
1988;1988;43408;55966142
1988;1988;46740;55966142
1987;1987;43478;55681780
1987;1987;43554;55681780
1987;1987;39308;55681780
1987;1987;41422;55681780
1987;1987;42516;55681780
1987;1987;42176;55681780
1987;1987;43786;55681780
1987;1987;43337;55681780
1987;1987;45600;55681780
1987;1987;43613;55681780
1987;1987;51229;55681780
1986;1986;42894;55411238
1986;1986;42798;55411238
1986;1986;41165;55411238
1986;1986;40821;55411238
1986;1986;42198;55411238
1986;1986;43632;55411238
1986;1986;43594;55411238
1986;1986;45204;55411238
1986;1986;53666;55411238
1986;1986;52732;55411238
1986;1986;51466;55411238
1985;1985;47412;55157303
1985;1985;43963;55157303
1985;1985;40213;55157303
1985;1985;41105;55157303
1985;1985;43230;55157303
1985;1985;41673;55157303
1985;1985;45269;55157303
1985;1985;45653;55157303
1985;1985;51271;55157303
1985;1985;47112;55157303
1985;1985;57357;55157303
1984;1984;43937;54894854
1984;1984;45437;54894854
1984;1984;40656;54894854
1984;1984;41457;54894854
1984;1984;43445;54894854
1984;1984;43830;54894854
1984;1984;45498;54894854
1984;1984;46998;54894854
1984;1984;49926;54894854
1984;1984;45110;54894854
1984;1984;48740;54894854
1983;1983;45808;54649984
1983;1983;44655;54649984
1983;1983;41446;54649984
1983;1983;42000;54649984
1983;1983;49570;54649984
1983;1983;43395;54649984
1983;1983;45008;54649984
1983;1983;46372;54649984
1983;1983;51319;54649984
1983;1983;49778;54649984
1983;1983;50526;54649984
1982;1982;44347;54335000
1982;1982;45073;54335000
1982;1982;41276;54335000
1982;1982;41874;54335000
1982;1982;46326;54335000
1982;1982;41919;54335000
1982;1982;45757;54335000
1982;1982;46145;54335000
1982;1982;48016;54335000
1982;1982;43950;54335000
1982;1982;49581;54335000
1981;1981;45182;54028630
1981;1981;45618;54028630
1981;1981;40219;54028630
1981;1981;41958;54028630
1981;1981;43935;54028630
1981;1981;42658;54028630
1981;1981;46040;54028630
1981;1981;44564;54028630
1981;1981;50199;54028630
1981;1981;50153;54028630
1981;1981;55289;54028630
1980;1980;47016;53731387
1980;1980;45835;53731387
1980;1980;40520;53731387
1980;1980;42166;53731387
1980;1980;44616;53731387
1980;1980;42621;53731387
1980;1980;45611;53731387
1980;1980;45852;53731387
1980;1980;47306;53731387
1980;1980;44590;53731387
1980;1980;51015;53731387
1979;1979;45464;53481073
1979;1979;45289;53481073
1979;1979;41059;53481073
1979;1979;41213;53481073
1979;1979;44242;53481073
1979;1979;41870;53481073
1979;1979;46375;53481073
1979;1979;46123;53481073
1979;1979;48683;53481073
1979;1979;43825;53481073
1979;1979;50317;53481073
1978;1978;44122;53271566
1978;1978;45078;53271566
1978;1978;39842;53271566
1978;1978;40427;53271566
1978;1978;44099;53271566
1978;1978;41509;53271566
1978;1978;44974;53271566
1978;1978;45103;53271566
1978;1978;49283;53271566
1978;1978;52291;53271566
1978;1978;50820;53271566
1977;1977;43932;53019005
1977;1977;43629;53019005
1977;1977;41290;53019005
1977;1977;41370;53019005
1977;1977;42834;53019005
1977;1977;41209;53019005
1977;1977;44659;53019005
1977;1977;46991;53019005
1977;1977;48498;53019005
1977;1977;43491;53019005
1977;1977;49306;53019005
1976;1976;44149;52798338
1976;1976;43403;52798338
1976;1976;40928;52798338
1976;1976;41587;52798338
1976;1976;45983;52798338
1976;1976;45449;52798338
1976;1976;45605;52798338
1976;1976;47105;52798338
1976;1976;55206;52798338
1976;1976;50172;52798338
1976;1976;49611;52798338
1975;1975;44745;52600000
1975;1975;46640;52600000
1975;1975;42164;52600000
1975;1975;45287;52600000
1975;1975;44704;52600000
1975;1975;43697;52600000
1975;1975;46400;52600000
1975;1975;47957;52600000
1975;1975;49246;52600000
1975;1975;44628;52600000
1975;1975;55805;52600000
1974;1974;46986;52320725
1974;1974;48213;52320725
1974;1974;41559;52320725
1974;1974;42266;52320725
1974;1974;43058;52320725
1974;1974;42626;52320725
1974;1974;46133;52320725
1974;1974;45316;52320725
1974;1974;49355;52320725
1974;1974;42131;52320725
1974;1974;48177;52320725
1973;1973;45080;51915873
1973;1973;46284;51915873
1973;1973;40570;51915873
1973;1973;43518;51915873
1973;1973;42236;51915873
1973;1973;41801;51915873
1973;1973;44328;51915873
1973;1973;45607;51915873
1973;1973;48974;51915873
1973;1973;46668;51915873
1973;1973;64762;51915873
1972;1972;44159;51485953
1972;1972;45828;51485953
1972;1972;41617;51485953
1972;1972;41689;51485953
1972;1972;43464;51485953
1972;1972;42404;51485953
1972;1972;44972;51485953
1972;1972;44008;51485953
1972;1972;48118;51485953
1972;1972;47599;51485953
1972;1972;54956;51485953
1971;1971;45538;51016234
1971;1971;44621;51016234
1971;1971;40482;51016234
1971;1971;40991;51016234
1971;1971;45569;51016234
1971;1971;42310;51016234
1971;1971;44005;51016234
1971;1971;45523;51016234
1971;1971;52813;51016234
1971;1971;46097;51016234
1971;1971;55079;51016234
1970;1970;44393;50528219
1970;1970;44033;50528219
1970;1970;40172;50528219
1970;1970;41178;50528219
1970;1970;42132;50528219
1970;1970;41153;50528219
1970;1970;44369;50528219
1970;1970;45864;50528219
1970;1970;49848;50528219
1970;1970;44189;50528219
1970;1970;57729;50528219
1969;1969;45581;50107735
1969;1969;44077;50107735
1969;1969;40915;50107735
1969;1969;41160;50107735
1969;1969;44000;50107735
1969;1969;42277;50107735
1969;1969;44932;50107735
1969;1969;47426;50107735
1969;1969;50615;50107735
1969;1969;46746;50107735
1969;1969;50881;50107735
1968;1968;44826;49723072
1968;1968;43051;49723072
1968;1968;39351;49723072
1968;1968;40075;49723072
1968;1968;41476;49723072
1968;1968;40892;49723072
1968;1968;43713;49723072
1968;1968;46455;49723072
1968;1968;57273;49723072
1968;1968;55577;49723072
1968;1968;51061;49723072
1967;1967;44877;49373537
1967;1967;42453;49373537
1967;1967;40241;49373537
1967;1967;40224;49373537
1967;1967;42527;49373537
1967;1967;41305;49373537
1967;1967;44657;49373537
1967;1967;45422;49373537
1967;1967;49256;49373537
1967;1967;49087;49373537
1967;1967;52771;49373537
1966;1966;47135;48953792
1966;1966;42553;48953792
1966;1966;38249;48953792
1966;1966;40181;48953792
1966;1966;39941;48953792
1966;1966;40735;48953792
1966;1966;42400;48953792
1966;1966;45795;48953792
1966;1966;47037;48953792
1966;1966;43197;48953792
1966;1966;52493;48953792
1965;1965;43727;48561800
1965;1965;42809;48561800
1965;1965;39029;48561800
1965;1965;38705;48561800
1965;1965;39191;48561800
1965;1965;41080;48561800
1965;1965;43481;48561800
1965;1965;44094;48561800
1965;1965;64174;48561800
1965;1965;49851;48561800
1965;1965;50205;48561800
1964;1964;44768;48059029
1964;1964;43687;48059029
1964;1964;37193;48059029
1964;1964;38124;48059029
1964;1964;41469;48059029
1964;1964;38313;48059029
1964;1964;41397;48059029
1964;1964;43490;48059029
1964;1964;46434;48059029
1964;1964;45770;48059029
1964;1964;52136;48059029
1963;1963;41254;47573406
1963;1963;41888;47573406
1963;1963;38310;47573406
1963;1963;37276;47573406
1963;1963;40210;47573406
1963;1963;38910;47573406
1963;1963;43129;47573406
1963;1963;47911;47573406
1963;1963;63038;47573406
1963;1963;57997;47573406
1963;1963;58163;47573406
1962;1962;44281;46422000
1962;1962;41540;46422000
1962;1962;36769;46422000
1962;1962;36801;46422000
1962;1962;38532;46422000
1962;1962;40608;46422000
1962;1962;42495;46422000
1962;1962;49374;46422000
1962;1962;58960;46422000
1962;1962;47280;46422000
1962;1962;51804;46422000
1961;1961;44631;45903656
1961;1961;40365;45903656
1961;1961;35808;45903656
1961;1961;36889;45903656
1961;1961;37511;45903656
1961;1961;39362;45903656
1961;1961;40232;45903656
1961;1961;41093;45903656
1961;1961;43080;45903656
1961;1961;41813;45903656
1961;1961;50816;45903656
1960;1960;40787;45464797
1960;1960;42503;45464797
1960;1960;35599;45464797
1960;1960;36049;45464797
1960;1960;36250;45464797
1960;1960;35851;45464797
1960;1960;40405;45464797
1960;1960;40827;45464797
1960;1960;46868;45464797
1960;1960;57951;45464797
1960;1960;60414;45464797
1959;1959;42899;45014662
1959;1959;39524;45014662
1959;1959;34954;45014662
1959;1959;35222;45014662
1959;1959;38584;45014662
1959;1959;37602;45014662
1959;1959;43832;45014662
1959;1959;48180;45014662
1959;1959;48627;45014662
1959;1959;46355;45014662
1959;1959;47483;45014662
1958;1958;42689;44563043
1958;1958;40532;44563043
1958;1958;34417;44563043
1958;1958;35096;44563043
1958;1958;36939;44563043
1958;1958;36288;44563043
1958;1958;40009;44563043
1958;1958;43746;44563043
1958;1958;48476;44563043
1958;1958;43451;44563043
1958;1958;51563;44563043
1957;1957;52329;44058683
1957;1957;45258;44058683
1957;1957;36454;44058683
1957;1957;36455;44058683
1957;1957;39774;44058683
1957;1957;39094;44058683
1957;1957;40495;44058683
1957;1957;41437;44058683
1957;1957;43656;44058683
1957;1957;45707;44058683
1957;1957;56610;44058683
1956;1956;44859;43627467
1956;1956;40669;43627467
1956;1956;36638;43627467
1956;1956;36144;43627467
1956;1956;38820;43627467
1956;1956;38974;43627467
1956;1956;44009;43627467
1956;1956;46263;43627467
1956;1956;58113;43627467
1956;1956;61556;43627467
1956;1956;52107;43627467
1955;1955;43595;43227872
1955;1955;41772;43227872
1955;1955;35745;43227872
1955;1955;37969;43227872
1955;1955;38211;43227872
1955;1955;38477;43227872
1955;1955;41749;43227872
1955;1955;45364;43227872
1955;1955;56974;43227872
1955;1955;46623;43227872
1955;1955;52017;43227872
1954;1954;41178;42885138
1954;1954;40719;42885138
1954;1954;35450;42885138
1954;1954;36316;42885138
1954;1954;37671;42885138
1954;1954;38096;42885138
1954;1954;43538;42885138
1954;1954;44349;42885138
1954;1954;49423;42885138
1954;1954;53607;42885138
1954;1954;52729;42885138
1953;1953;43243;42618354
1953;1953;40885;42618354
1953;1953;35488;42618354
1953;1953;36685;42618354
1953;1953;36807;42618354
1953;1953;37468;42618354
1953;1953;42651;42618354
1953;1953;43573;42618354
1953;1953;54100;42618354
1953;1953;73023;42618354
1953;1953;69112;42618354
1952;1952;42467;42300981
1952;1952;41385;42300981
1952;1952;36278;42300981
1952;1952;36246;42300981
1952;1952;40266;42300981
1952;1952;38144;42300981
1952;1952;41167;42300981
1952;1952;44752;42300981
1952;1952;50111;42300981
1952;1952;51750;42300981
1952;1952;53364;42300981
1951;1951;42370;42010088
1951;1951;42997;42010088
1951;1951;37288;42010088
1951;1951;37670;42010088
1951;1951;40199;42010088
1951;1951;40359;42010088
1951;1951;46496;42010088
1951;1951;49690;42010088
1951;1951;58959;42010088
1951;1951;58340;42010088
1951;1951;63048;42010088
1950;1950;44418;41647258
1950;1950;42232;41647258
1950;1950;37075;41647258
1950;1950;38124;41647258
1950;1950;39798;41647258
1950;1950;40095;41647258
1950;1950;45515;41647258
1950;1950;47248;41647258
1950;1950;50439;41647258
1950;1950;47749;41647258
1950;1950;51927;41647258
1949;1949;47049;41313195
1949;1949;40534;41313195
1949;1949;36267;41313195
1949;1949;37372;41313195
1949;1949;40042;41313195
1949;1949;39141;41313195
1949;1949;41896;41313195
1949;1949;44154;41313195
1949;1949;52772;41313195
1949;1949;58592;41313195
1949;1949;87861;41313195
1948;1948;43596;40910569
1948;1948;39588;40910569
1948;1948;35314;40910569
1948;1948;35272;40910569
1948;1948;39069;40910569
1948;1948;37084;40910569
1948;1948;42003;40910569
1948;1948;43829;40910569
1948;1948;51983;40910569
1948;1948;45412;40910569
1948;1948;46161;40910569
1947;1947;41361;40448254
1947;1947;40488;40448254
1947;1947;35768;40448254
1947;1947;36763;40448254
1947;1947;38364;40448254
1947;1947;37894;40448254
1947;1947;42605;40448254
1947;1947;45121;40448254
1947;1947;56442;40448254
1947;1947;56891;40448254
1947;1947;60453;40448254
1946;1946;42954;40125230
1946;1946;37842;40125230
1946;1946;35188;40125230
1946;1946;34880;40125230
1946;1946;37587;40125230
1946;1946;37721;40125230
1946;1946;42591;40125230
1946;1946;45376;40125230
1946;1946;57287;40125230
1946;1946;53958;40125230
1946;1946;70900;40125230
